{
  "$schema": "https://json-schema.org/draft/2020-12/schema",
  "$id": "CreateUser",
  "title": "User",
  "description": "Users of system",
  "type": "object",
  "properties": {
    "id": {
      "description": "Search by id of reacord",
      "type": "number",
      "minimum": 1
    },
    "typeTransactionId": {
      "description": "search of type transaction",
      "type": "number",
      "minimum": 1
    },
    "userMadeId": {
      "description": "Search by user made transaction",
      "type": "number",
      "minimum": 1
    },
    "userAffectedId": {
      "description": "Search by the user affected transaction",
      "type": "number",
      "minimum": 1
    }
  }
}